…
# 2.Look at the spread of GDP per capita within the continents.

The spread of GDP per capita within the continents are listed below.

``` r
gapminder %>% 
group_by(continent) %>% 
select(continent,gdpPercap)
```

    ## # A tibble: 1,704 x 2
    ## # Groups:   continent [5]
    ##    continent gdpPercap
    ##    <fct>         <dbl>
    ##  1 Asia           779.
    ##  2 Asia           821.
    ##  3 Asia           853.
    ##  4 Asia           836.
    ##  5 Asia           740.
    ##  6 Asia           786.
    ##  7 Asia           978.
    ##  8 Asia           852.
    ##  9 Asia           649.
    ## 10 Asia           635.
    ## # ... with 1,694 more rows
…
# 3.How is life expectancy changing over time on different continents?

In the table below, the data is organized with year growing for each
continent, so the trends of lifeExp on different continents can be seen
clearly.

``` r
gapminder %>% 
  group_by(continent) %>% 
  select(continent,year,lifeExp)
```

    ## # A tibble: 1,704 x 3
    ## # Groups:   continent [5]
    ##    continent  year lifeExp
    ##    <fct>     <int>   <dbl>
    ##  1 Asia       1952    28.8
    ##  2 Asia       1957    30.3
    ##  3 Asia       1962    32.0
    ##  4 Asia       1967    34.0
    ##  5 Asia       1972    36.1
    ##  6 Asia       1977    38.4
    ##  7 Asia       1982    39.9
    ##  8 Asia       1987    40.8
    ##  9 Asia       1992    41.7
    ## 10 Asia       1997    41.8
    ## # ... with 1,694 more rows
…
